{
  "name": "",
  "css_prefix_text": "icon-",
  "css_use_suffix": false,
  "hinting": true,
  "glyphs": [
    {
      "uid": "43ab845088317bd348dee1d975700c48",
      "css": "ok-circled",
      "code": 59404,
      "src": "fontawesome"
    },
    {
      "uid": "7222571caa5c15f83dcfd447c58d68d9",
      "css": "search",
      "code": 59395,
      "src": "entypo"
    },
    {
      "uid": "2cfb3f2b46b34a1790aec0aa846297b6",
      "css": "menu",
      "code": 59402,
      "src": "entypo"
    },
    {
      "uid": "c709da589c923ba3c2ad48d9fc563e93",
      "css": "cancel",
      "code": 59399,
      "src": "entypo"
    },
    {
      "uid": "513ac180ff85bd275f2b736720cbbf5e",
      "css": "home",
      "code": 59393,
      "src": "entypo"
    },
    {
      "uid": "f11c9e95ae5eaa84d193e8fa1d38c6f9",
      "css": "down-open-mini",
      "code": 59398,
      "src": "entypo"
    },
    {
      "uid": "37f6cfbb4062ed0d01b351ec35c334ff",
      "css": "right-open-mini",
      "code": 59400,
      "src": "entypo"
    },
    {
      "uid": "289b5f92f23acf1059c93fbf401c1ad5",
      "css": "down-open-big",
      "code": 59392,
      "src": "entypo"
    },
    {
      "uid": "884cfc3e6e2d456dd2a2ca0dbb9e6337",
      "css": "left-open-big",
      "code": 59401,
      "src": "entypo"
    },
    {
      "uid": "004882ab2d5c418c5b2060e80596279b",
      "css": "right-open-big",
      "code": 59394,
      "src": "entypo"
    },
    {
      "uid": "d090355c31f497b61d676416c1fd39fb",
      "css": "twitter",
      "code": 59397,
      "src": "entypo"
    },
    {
      "uid": "bc50457410acf467b8b5721240768742",
      "css": "facebook",
      "code": 59396,
      "src": "entypo"
    },
    {
      "uid": "5889f24614ead600acce1af6a861b97c",
      "css": "cw",
      "code": 59403,
      "src": "iconic"
    }
  ]
}